{
 "db_name": "lmsdb",
 "db_password": "4vQKSeHDzhV9Tf08",
 "db_type": "mariadb",
 "developer_mode": 1,
 "encryption_key": "NOqRHK9JkJBBnGoTeZF9l3Y5SlAqoZUfEwt4lxjfLMA=",
 "user_type_doctype_limit": {
  "employee_self_service": 10
 },
 "host_name": "qroom.nestorhawk.com"
}